Get started – marginplyr
…
6 Cartesian products

SQL combines comma-separated grouping items by Cartesian product. grouping_spec() provides the same operation in R.

sales |>
  summarize_with_margins(
    total = sum(amount),
    .by = year,
    .grouping = grouping_spec(
      rollup(region, store),
      cube(product, channel)
    )
  )

# A tibble: 53 × 6
    year region store product channel total
   <int> <chr>  <chr> <chr>   <chr>   <dbl>
 1  2024 East   E1    A       Online     10
 2  2024 East   E1    A       Total      10
 3  2024 East   E1    Total   Online     10
 4  2024 East   E1    Total   Total      10
 5  2024 East   E2    B       Store      20
 6  2024 East   E2    B       Total      20
 7  2024 East   E2    Total   Store      20
 8  2024 East   E2    Total   Total      20
 9  2024 East   Total A       Online     10
10  2024 East   Total A       Total      10
# ℹ 43 more rows
…
